…
```r
biom_result_t$means %>%
  map(~ broom::tidy(.x)) %>%
 bind_rows(.id = "spp") %>%
  select(1:5) 
```

```
## # A tibble: 144 × 5
##    spp   Crop_ID Corn_weed_management response std.error
##    <chr> <chr>   <chr>                   <dbl>     <dbl>
##  1 AMATA C2      conv                   0.357     0.547 
##  2 AMATA S2      conv                   0.886     1.36  
##  3 AMATA C3      conv                   0.0547    0.0844
##  4 AMATA S3      conv                   0.403     0.616 
##  5 AMATA O3      conv                   1.41      2.15  
##  6 AMATA C4      conv                   0.0203    0.0319
##  7 AMATA S4      conv                   0.0165    0.0260
##  8 AMATA O4      conv                   4.29      6.56  
##  9 AMATA A4      conv                   0.0658    0.101 
## 10 AMATA C2      low                    0.0985    0.151 
## # ℹ 134 more rows
```
…
